#
# There is insufficient memory for the Java Runtime Environment to continue.
# Native memory allocation (malloc) failed to allocate 131072000 bytes for committing reserved memory.
# Possible reasons:
#   The system is out of physical RAM or swap space
#   In 32 bit mode, the process size limit was hit
# Possible solutions:
#   Reduce memory load on the system
#   Increase physical memory or swap space
#   Check if swap backing store is full
#   Use 64 bit Java on a 64 bit OS
#   Decrease Java heap size (-Xmx/-Xms)
#   Decrease number of Java threads
#   Decrease Java thread stack sizes (-Xss)
#   Set larger code cache with -XX:ReservedCodeCacheSize=
# This output file may be truncated or incomplete.
#
#  Out of Memory Error (os_linux.cpp:2756), pid=5375, tid=139727442298624
#
# JRE version: Java(TM) SE Runtime Environment (7.0_80-b15) (build 1.7.0_80-b15)
# Java VM: Java HotSpot(TM) 64-Bit Server VM (24.80-b11 mixed mode linux-amd64 compressed oops)
# Failed to write core dump. Core dumps have been disabled. To enable core dumping, try "ulimit -c unlimited" before starting Java again
#

---------------  T H R E A D  ---------------

Current thread (0x00007f14dc068800):  VMThread [stack: 0x00007f14d4804000,0x00007f14d4905000] [id=5382]

Stack: [0x00007f14d4804000,0x00007f14d4905000],  sp=0x00007f14d4903100,  free space=1020k
Native frames: (J=compiled Java code, j=interpreted, Vv=VM code, C=native code)
V  [libjvm.so+0x9a320a]  VMError::report_and_die()+0x2ea
V  [libjvm.so+0x498d3b]  report_vm_out_of_memory(char const*, int, unsigned long, char const*)+0x9b
V  [libjvm.so+0x82191e]  os::Linux::commit_memory_impl(char*, unsigned long, bool)+0xfe
V  [libjvm.so+0x821e69]  os::pd_commit_memory(char*, unsigned long, unsigned long, bool)+0x29
V  [libjvm.so+0x81bb6a]  os::commit_memory(char*, unsigned long, unsigned long, bool)+0x2a
V  [libjvm.so+0x88d623]  PSVirtualSpace::expand_by(unsigned long)+0x53
V  [libjvm.so+0x88e9f8]  PSYoungGen::resize_generation(unsigned long, unsigned long)+0xf8
V  [libjvm.so+0x88db62]  PSYoungGen::resize(unsigned long, unsigned long)+0x22
V  [libjvm.so+0x88af1d]  PSScavenge::invoke_no_policy()+0xf3d
V  [libjvm.so+0x88b761]  PSScavenge::invoke()+0x41
V  [libjvm.so+0x843f40]  ParallelScavengeHeap::failed_mem_allocate(unsigned long)+0x70
V  [libjvm.so+0x9a4a97]  VM_ParallelGCFailedAllocation::doit()+0x97
V  [libjvm.so+0x9abf35]  VM_Operation::evaluate()+0x55
V  [libjvm.so+0x9aa2fa]  VMThread::evaluate_operation(VM_Operation*)+0xba
V  [libjvm.so+0x9aa67e]  VMThread::loop()+0x1ce
V  [libjvm.so+0x9aaaf0]  VMThread::run()+0x70
V  [libjvm.so+0x8238c8]  java_start(Thread*)+0x108

VM_Operation (0x00007f14e1e093c0): ParallelGCFailedAllocation, mode: safepoint, requested by thread 0x00007f14dc00d000


---------------  P R O C E S S  ---------------

Java Threads: ( => current thread )
  0x00007f14dc097000 JavaThread "Service Thread" daemon [_thread_blocked, id=5388, stack(0x00007f14b7dfe000,0x00007f14b7eff000)]
  0x00007f14dc094800 JavaThread "C2 CompilerThread1" daemon [_thread_blocked, id=5387, stack(0x00007f14b7eff000,0x00007f14b8000000)]
  0x00007f14dc092000 JavaThread "C2 CompilerThread0" daemon [_thread_blocked, id=5386, stack(0x00007f14d40df000,0x00007f14d41e0000)]
  0x00007f14dc08f800 JavaThread "Signal Dispatcher" daemon [_thread_blocked, id=5385, stack(0x00007f14d41e0000,0x00007f14d42e1000)]
  0x00007f14dc06f000 JavaThread "Finalizer" daemon [_thread_blocked, id=5384, stack(0x00007f14d4602000,0x00007f14d4703000)]
  0x00007f14dc06d000 JavaThread "Reference Handler" daemon [_thread_blocked, id=5383, stack(0x00007f14d4703000,0x00007f14d4804000)]
  0x00007f14dc00d000 JavaThread "main" [_thread_blocked, id=5376, stack(0x00007f14e1d0a000,0x00007f14e1e0b000)]

Other Threads:
=>0x00007f14dc068800 VMThread [stack: 0x00007f14d4804000,0x00007f14d4905000] [id=5382]
  0x00007f14dc0aa000 WatcherThread [stack: 0x00007f14b7cfd000,0x00007f14b7dfe000] [id=5389]

VM state:at safepoint (normal execution)

VM Mutex/Monitor currently owned by a thread:  ([mutex/lock_event])
[0x00007f14dc009730] Threads_lock - owner thread: 0x00007f14dc068800
[0x00007f14dc009c30] Heap_lock - owner thread: 0x00007f14dc00d000

Heap
 PSYoungGen      total 139264K, used 11553K [0x00000000eaa80000, 0x00000000f4280000, 0x0000000100000000)
  eden space 126976K, 0% used [0x00000000eaa80000,0x00000000eaa80000,0x00000000f2680000)
  from space 12288K, 94% used [0x00000000f2680000,0x00000000f31c8608,0x00000000f3280000)
  to   space 8192K, 0% used [0x00000000f3280000,0x00000000f3280000,0x00000000f3a80000)
 ParOldGen       total 41984K, used 11004K [0x00000000c0000000, 0x00000000c2900000, 0x00000000eaa80000)
  object space 41984K, 26% used [0x00000000c0000000,0x00000000c0abf2b0,0x00000000c2900000)
 PSPermGen       total 21504K, used 12931K [0x00000000bae00000, 0x00000000bc300000, 0x00000000c0000000)
  object space 21504K, 60% used [0x00000000bae00000,0x00000000bbaa0c58,0x00000000bc300000)

Card table byte_map: [0x00007f14d7d3d000,0x00007f14d7f67000] byte_map_base: 0x00007f14d7766000

Polling page: 0x00007f14e1e15000

Code Cache  [0x00007f14d7f67000, 0x00007f14d81d7000, 0x00007f14daf67000)
 total_blobs=841 nmethods=509 adapters=285 free_code_cache=47345Kb largest_free_block=48440192

Compilation events (10 events):
Event: 35.947 Thread 0x00007f14dc094800 nmethod 539 0x00007f14d8124e50 code [0x00007f14d8124f80, 0x00007f14d8124ff8]
Event: 35.947 Thread 0x00007f14dc094800  541 %           java.util.regex.Pattern::clazz @ 25 (405 bytes)
Event: 35.948 Thread 0x00007f14dc092000 nmethod 540 0x00007f14d812b2d0 code [0x00007f14d812b400, 0x00007f14d812b478]
Event: 35.978 Thread 0x00007f14dc092000  542             java.util.regex.Pattern$BitClass::<init> (15 bytes)
Event: 35.980 Thread 0x00007f14dc092000 nmethod 542 0x00007f14d812afd0 code [0x00007f14d812b120, 0x00007f14d812b238]
Event: 35.983 Thread 0x00007f14dc092000  543             java.util.regex.Pattern::range (229 bytes)
Event: 36.005 Thread 0x00007f14dc092000 nmethod 543 0x00007f14d812c050 code [0x00007f14d812c260, 0x00007f14d812c8b0]
Event: 36.013 Thread 0x00007f14dc092000  544             java.util.regex.Pattern$LastNode::match (45 bytes)
Event: 36.015 Thread 0x00007f14dc092000 nmethod 544 0x00007f14d812bd50 code [0x00007f14d812bea0, 0x00007f14d812bf58]
Event: 36.064 Thread 0x00007f14dc094800 nmethod 541% 0x00007f14d81316d0 code [0x00007f14d8131aa0, 0x00007f14d81331d8]

GC Heap History (10 events):
Event: 1.212 GC heap after
Heap after GC invocations=2 (full 0):
 PSYoungGen      total 35328K, used 1333K [0x00000000eaa80000, 0x00000000ecf80000, 0x0000000100000000)
  eden space 32768K, 0% used [0x00000000eaa80000,0x00000000eaa80000,0x00000000eca80000)
  from space 2560K, 52% used [0x00000000ecd00000,0x00000000ece4d6f0,0x00000000ecf80000)
  to   space 2560K, 0% used [0x00000000eca80000,0x00000000eca80000,0x00000000ecd00000)
 ParOldGen       total 41984K, used 8K [0x00000000c0000000, 0x00000000c2900000, 0x00000000eaa80000)
  object space 41984K, 0% used [0x00000000c0000000,0x00000000c0002000,0x00000000c2900000)
 PSPermGen       total 21504K, used 5407K [0x00000000bae00000, 0x00000000bc300000, 0x00000000c0000000)
  object space 21504K, 25% used [0x00000000bae00000,0x00000000bb347d10,0x00000000bc300000)
}
Event: 2.312 GC heap before
{Heap before GC invocations=3 (full 0):
 PSYoungGen      total 35328K, used 34101K [0x00000000eaa80000, 0x00000000ecf80000, 0x0000000100000000)
  eden space 32768K, 100% used [0x00000000eaa80000,0x00000000eca80000,0x00000000eca80000)
  from space 2560K, 52% used [0x00000000ecd00000,0x00000000ece4d6f0,0x00000000ecf80000)
  to   space 2560K, 0% used [0x00000000eca80000,0x00000000eca80000,0x00000000ecd00000)
 ParOldGen       total 41984K, used 8K [0x00000000c0000000, 0x00000000c2900000, 0x00000000eaa80000)
  object space 41984K, 0% used [0x00000000c0000000,0x00000000c0002000,0x00000000c2900000)
 PSPermGen       total 21504K, used 6660K [0x00000000bae00000, 0x00000000bc300000, 0x00000000c0000000)
  object space 21504K, 30% used [0x00000000bae00000,0x00000000bb481098,0x00000000bc300000)
Event: 2.321 GC heap after
Heap after GC invocations=3 (full 0):
 PSYoungGen      total 35328K, used 2292K [0x00000000eaa80000, 0x00000000eef80000, 0x0000000100000000)
  eden space 32768K, 0% used [0x00000000eaa80000,0x00000000eaa80000,0x00000000eca80000)
  from space 2560K, 89% used [0x00000000eca80000,0x00000000eccbd3c8,0x00000000ecd00000)
  to   space 2560K, 0% used [0x00000000eed00000,0x00000000eed00000,0x00000000eef80000)
 ParOldGen       total 41984K, used 16K [0x00000000c0000000, 0x00000000c2900000, 0x00000000eaa80000)
  object space 41984K, 0% used [0x00000000c0000000,0x00000000c0004000,0x00000000c2900000)
 PSPermGen       total 21504K, used 6660K [0x00000000bae00000, 0x00000000bc300000, 0x00000000c0000000)
  object space 21504K, 30% used [0x00000000bae00000,0x00000000bb481098,0x00000000bc300000)
}
Event: 2.986 GC heap before
{Heap before GC invocations=4 (full 0):
 PSYoungGen      total 35328K, used 35060K [0x00000000eaa80000, 0x00000000eef80000, 0x0000000100000000)
  eden space 32768K, 100% used [0x00000000eaa80000,0x00000000eca80000,0x00000000eca80000)
  from space 2560K, 89% used [0x00000000eca80000,0x00000000eccbd3c8,0x00000000ecd00000)
  to   space 2560K, 0% used [0x00000000eed00000,0x00000000eed00000,0x00000000eef80000)
 ParOldGen       total 41984K, used 16K [0x00000000c0000000, 0x00000000c2900000, 0x00000000eaa80000)
  object space 41984K, 0% used [0x00000000c0000000,0x00000000c0004000,0x00000000c2900000)
 PSPermGen       total 21504K, used 9189K [0x00000000bae00000, 0x00000000bc300000, 0x00000000c0000000)
  object space 21504K, 42% used [0x00000000bae00000,0x00000000bb6f9550,0x00000000bc300000)
Event: 3.012 GC heap after
Heap after GC invocations=4 (full 0):
 PSYoungGen      total 68096K, used 2541K [0x00000000eaa80000, 0x00000000eef80000, 0x0000000100000000)
  eden space 65536K, 0% used [0x00000000eaa80000,0x00000000eaa80000,0x00000000eea80000)
  from space 2560K, 99% used [0x00000000eed00000,0x00000000eef7b6a8,0x00000000eef80000)
  to   space 2560K, 0% used [0x00000000eea80000,0x00000000eea80000,0x00000000eed00000)
 ParOldGen       total 41984K, used 346K [0x00000000c0000000, 0x00000000c2900000, 0x00000000eaa80000)
  object space 41984K, 0% used [0x00000000c0000000,0x00000000c0056a90,0x00000000c2900000)
 PSPermGen       total 21504K, used 9189K [0x00000000bae00000, 0x00000000bc300000, 0x00000000c0000000)
  object space 21504K, 42% used [0x00000000bae00000,0x00000000bb6f9550,0x00000000bc300000)
}
Event: 25.055 GC heap before
{Heap before GC invocations=5 (full 0):
 PSYoungGen      total 68096K, used 68077K [0x00000000eaa80000, 0x00000000eef80000, 0x0000000100000000)
  eden space 65536K, 100% used [0x00000000eaa80000,0x00000000eea80000,0x00000000eea80000)
  from space 2560K, 99% used [0x00000000eed00000,0x00000000eef7b6a8,0x00000000eef80000)
  to   space 2560K, 0% used [0x00000000eea80000,0x00000000eea80000,0x00000000eed00000)
 ParOldGen       total 41984K, used 346K [0x00000000c0000000, 0x00000000c2900000, 0x00000000eaa80000)
  object space 41984K, 0% used [0x00000000c0000000,0x00000000c0056a90,0x00000000c2900000)
 PSPermGen       total 21504K, used 12498K [0x00000000bae00000, 0x00000000bc300000, 0x00000000c0000000)
  object space 21504K, 58% used [0x00000000bae00000,0x00000000bba34a10,0x00000000bc300000)
Event: 25.133 GC heap after
Heap after GC invocations=5 (full 0):
 PSYoungGen      total 68096K, used 2544K [0x00000000eaa80000, 0x00000000f3a80000, 0x0000000100000000)
  eden space 65536K, 0% used [0x00000000eaa80000,0x00000000eaa80000,0x00000000eea80000)
  from space 2560K, 99% used [0x00000000eea80000,0x00000000eecfc030,0x00000000eed00000)
  to   space 8192K, 0% used [0x00000000f3280000,0x00000000f3280000,0x00000000f3a80000)
 ParOldGen       total 41984K, used 6757K [0x00000000c0000000, 0x00000000c2900000, 0x00000000eaa80000)
  object space 41984K, 16% used [0x00000000c0000000,0x00000000c06994e8,0x00000000c2900000)
 PSPermGen       total 21504K, used 12498K [0x00000000bae00000, 0x00000000bc300000, 0x00000000c0000000)
  object space 21504K, 58% used [0x00000000bae00000,0x00000000bba34a10,0x00000000bc300000)
}
Event: 34.897 GC heap before
{Heap before GC invocations=6 (full 0):
 PSYoungGen      total 68096K, used 68080K [0x00000000eaa80000, 0x00000000f3a80000, 0x0000000100000000)
  eden space 65536K, 100% used [0x00000000eaa80000,0x00000000eea80000,0x00000000eea80000)
  from space 2560K, 99% used [0x00000000eea80000,0x00000000eecfc030,0x00000000eed00000)
  to   space 8192K, 0% used [0x00000000f3280000,0x00000000f3280000,0x00000000f3a80000)
 ParOldGen       total 41984K, used 6757K [0x00000000c0000000, 0x00000000c2900000, 0x00000000eaa80000)
  object space 41984K, 16% used [0x00000000c0000000,0x00000000c06994e8,0x00000000c2900000)
 PSPermGen       total 21504K, used 12608K [0x00000000bae00000, 0x00000000bc300000, 0x00000000c0000000)
  object space 21504K, 58% used [0x00000000bae00000,0x00000000bba50338,0x00000000bc300000)
Event: 34.962 GC heap after
Heap after GC invocations=6 (full 0):
 PSYoungGen      total 135168K, used 8170K [0x00000000eaa80000, 0x00000000f4280000, 0x0000000100000000)
  eden space 126976K, 0% used [0x00000000eaa80000,0x00000000eaa80000,0x00000000f2680000)
  from space 8192K, 99% used [0x00000000f3280000,0x00000000f3a7a858,0x00000000f3a80000)
  to   space 12288K, 0% used [0x00000000f2680000,0x00000000f2680000,0x00000000f3280000)
 ParOldGen       total 41984K, used 10655K [0x00000000c0000000, 0x00000000c2900000, 0x00000000eaa80000)
  object space 41984K, 25% used [0x00000000c0000000,0x00000000c0a67cd8,0x00000000c2900000)
 PSPermGen       total 21504K, used 12608K [0x00000000bae00000, 0x00000000bc300000, 0x00000000c0000000)
  object space 21504K, 58% used [0x00000000bae00000,0x00000000bba50338,0x00000000bc300000)
}
Event: 36.459 GC heap before
{Heap before GC invocations=7 (full 0):
 PSYoungGen      total 135168K, used 135146K [0x00000000eaa80000, 0x00000000f4280000, 0x0000000100000000)
  eden space 126976K, 100% used [0x00000000eaa80000,0x00000000f2680000,0x00000000f2680000)
  from space 8192K, 99% used [0x00000000f3280000,0x00000000f3a7a858,0x00000000f3a80000)
  to   space 12288K, 0% used [0x00000000f2680000,0x00000000f2680000,0x00000000f3280000)
 ParOldGen       total 41984K, used 10655K [0x00000000c0000000, 0x00000000c2900000, 0x00000000eaa80000)
  object space 41984K, 25% used [0x00000000c0000000,0x00000000c0a67cd8,0x00000000c2900000)
 PSPermGen       total 21504K, used 12931K [0x00000000bae00000, 0x00000000bc300000, 0x00000000c0000000)
  object space 21504K, 60% used [0x00000000bae00000,0x00000000bbaa0c58,0x00000000bc300000)

Deoptimization events (10 events):
Event: 35.803 Thread 0x00007f14dc00d000 Uncommon trap: reason=class_check action=maybe_recompile pc=0x00007f14d7fdedb0 method=java.util.regex.Pattern$CharProperty.match(Ljava/util/regex/Matcher;ILjava/lang/CharSequence;)Z @ 37
Event: 35.803 Thread 0x00007f14dc00d000 Uncommon trap: reason=class_check action=maybe_recompile pc=0x00007f14d7fdedb0 method=java.util.regex.Pattern$CharProperty.match(Ljava/util/regex/Matcher;ILjava/lang/CharSequence;)Z @ 37
Event: 35.883 Thread 0x00007f14dc00d000 Uncommon trap: reason=class_check action=maybe_recompile pc=0x00007f14d806dea0 method=java.util.regex.Pattern$Curly.match(Ljava/util/regex/Matcher;ILjava/lang/CharSequence;)Z @ 19
Event: 35.883 Thread 0x00007f14dc00d000 Uncommon trap: reason=class_check action=maybe_recompile pc=0x00007f14d806dea0 method=java.util.regex.Pattern$Curly.match(Ljava/util/regex/Matcher;ILjava/lang/CharSequence;)Z @ 19
Event: 35.884 Thread 0x00007f14dc00d000 Uncommon trap: reason=class_check action=maybe_recompile pc=0x00007f14d806dea0 method=java.util.regex.Pattern$Curly.match(Ljava/util/regex/Matcher;ILjava/lang/CharSequence;)Z @ 19
Event: 35.884 Thread 0x00007f14dc00d000 Uncommon trap: reason=class_check action=maybe_recompile pc=0x00007f14d806dea0 method=java.util.regex.Pattern$Curly.match(Ljava/util/regex/Matcher;ILjava/lang/CharSequence;)Z @ 19
Event: 35.884 Thread 0x00007f14dc00d000 Uncommon trap: reason=bimorphic action=maybe_recompile pc=0x00007f14d7fe8280 method=java.util.regex.Pattern$BnM.match(Ljava/util/regex/Matcher;ILjava/lang/CharSequence;)Z @ 111
Event: 35.921 Thread 0x00007f14dc00d000 Uncommon trap: reason=unstable_if action=reinterpret pc=0x00007f14d80ca44c method=java.lang.String.trim()Ljava/lang/String; @ 63
Event: 35.923 Thread 0x00007f14dc00d000 Uncommon trap: reason=unstable_if action=reinterpret pc=0x00007f14d80efa84 method=java.util.regex.Pattern.compile()V @ 320
Event: 36.012 Thread 0x00007f14dc00d000 Uncommon trap: reason=unstable_if action=reinterpret pc=0x00007f14d812dbb0 method=java.util.regex.Pattern$Curly.match1(Ljava/util/regex/Matcher;IILjava/lang/CharSequence;)Z @ 11

Internal exceptions (10 events):
Event: 33.123 Thread 0x00007f14dc00d000 Threw 0x00000000ecfebb28 at /HUDSON/workspace/7u-2-build-linux-amd64/jdk7u80/2329/hotspot/src/share/vm/prims/jvm.cpp:1319
Event: 33.133 Thread 0x00007f14dc00d000 Threw 0x00000000ed00bae8 at /HUDSON/workspace/7u-2-build-linux-amd64/jdk7u80/2329/hotspot/src/share/vm/prims/jvm.cpp:1319
Event: 33.135 Thread 0x00007f14dc00d000 Threw 0x00000000ed02b030 at /HUDSON/workspace/7u-2-build-linux-amd64/jdk7u80/2329/hotspot/src/share/vm/prims/jvm.cpp:1319
Event: 33.192 Thread 0x00007f14dc00d000 Threw 0x00000000ed14f0f8 at /HUDSON/workspace/7u-2-build-linux-amd64/jdk7u80/2329/hotspot/src/share/vm/prims/jvm.cpp:1319
Event: 35.215 Thread 0x00007f14dc00d000 Threw 0x00000000eadf56c8 at /HUDSON/workspace/7u-2-build-linux-amd64/jdk7u80/2329/hotspot/src/share/vm/prims/jvm.cpp:1319
Event: 35.222 Thread 0x00007f14dc00d000 Threw 0x00000000eae0f2f0 at /HUDSON/workspace/7u-2-build-linux-amd64/jdk7u80/2329/hotspot/src/share/vm/prims/jvm.cpp:1319
Event: 35.222 Thread 0x00007f14dc00d000 Threw 0x00000000eae27640 at /HUDSON/workspace/7u-2-build-linux-amd64/jdk7u80/2329/hotspot/src/share/vm/prims/jvm.cpp:1319
Event: 35.646 Thread 0x00007f14dc00d000 Threw 0x00000000eb4c08c8 at /HUDSON/workspace/7u-2-build-linux-amd64/jdk7u80/2329/hotspot/src/share/vm/prims/jvm.cpp:1319
Event: 35.795 Thread 0x00007f14dc00d000 Threw 0x00000000eb9e9050 at /HUDSON/workspace/7u-2-build-linux-amd64/jdk7u80/2329/hotspot/src/share/vm/prims/jvm.cpp:1319
Event: 35.797 Thread 0x00007f14dc00d000 Threw 0x00000000eba032b8 at /HUDSON/workspace/7u-2-build-linux-amd64/jdk7u80/2329/hotspot/src/share/vm/prims/jvm.cpp:1319

Events (10 events):
Event: 35.921 Thread 0x00007f14dc00d000 Uncommon trap: trap_request=0xffffff75 fr.pc=0x00007f14d80ca44c
Event: 35.921 Thread 0x00007f14dc00d000 DEOPT PACKING pc=0x00007f14d80ca44c sp=0x00007f14e1e09580
Event: 35.921 Thread 0x00007f14dc00d000 DEOPT UNPACKING pc=0x00007f14d7fa0445 sp=0x00007f14e1e09558 mode 2
Event: 35.923 Thread 0x00007f14dc00d000 Uncommon trap: trap_request=0xffffff75 fr.pc=0x00007f14d80efa84
Event: 35.923 Thread 0x00007f14dc00d000 DEOPT PACKING pc=0x00007f14d80efa84 sp=0x00007f14e1e09350
Event: 35.923 Thread 0x00007f14dc00d000 DEOPT UNPACKING pc=0x00007f14d7fa0445 sp=0x00007f14e1e09330 mode 2
Event: 36.012 Thread 0x00007f14dc00d000 Uncommon trap: trap_request=0xffffff75 fr.pc=0x00007f14d812dbb0
Event: 36.012 Thread 0x00007f14dc00d000 DEOPT PACKING pc=0x00007f14d812dbb0 sp=0x00007f14e1e09290
Event: 36.012 Thread 0x00007f14dc00d000 DEOPT UNPACKING pc=0x00007f14d7fa0445 sp=0x00007f14e1e092a8 mode 2
Event: 36.459 Executing VM operation: ParallelGCFailedAllocation


Dynamic libraries:
00400000-00401000 r-xp 00000000 fd:01 1053065                            /usr/lib/jvm/java-7-oracle/jre/bin/java
00600000-00601000 rw-p 00000000 fd:01 1053065                            /usr/lib/jvm/java-7-oracle/jre/bin/java
01996000-019b7000 rw-p 00000000 00:00 0                                  [heap]
bae00000-bc300000 rw-p 00000000 00:00 0 
bc300000-c0000000 rw-p 00000000 00:00 0 
c0000000-c2900000 rw-p 00000000 00:00 0 
c2900000-eaa80000 rw-p 00000000 00:00 0 
eaa80000-f4280000 rw-p 00000000 00:00 0 
fbf80000-100000000 rw-p 00000000 00:00 0 
7f14a8000000-7f14a8021000 rw-p 00000000 00:00 0 
7f14a8021000-7f14ac000000 ---p 00000000 00:00 0 
7f14ac000000-7f14ac021000 rw-p 00000000 00:00 0 
7f14ac021000-7f14b0000000 ---p 00000000 00:00 0 
7f14b0000000-7f14b0bbc000 rw-p 00000000 00:00 0 
7f14b0bbc000-7f14b4000000 ---p 00000000 00:00 0 
7f14b703e000-7f14b71ab000 rw-p 00000000 00:00 0 
7f14b71ab000-7f14b71af000 r--s 0008b000 fd:01 1052978                    /usr/lib/jvm/java-7-oracle/jre/lib/jsse.jar
7f14b71af000-7f14b71b7000 r-xp 00000000 fd:01 1052360                    /usr/lib/jvm/java-7-oracle/jre/lib/amd64/libmanagement.so
7f14b71b7000-7f14b73b6000 ---p 00008000 fd:01 1052360                    /usr/lib/jvm/java-7-oracle/jre/lib/amd64/libmanagement.so
7f14b73b6000-7f14b73b7000 rw-p 00007000 fd:01 1052360                    /usr/lib/jvm/java-7-oracle/jre/lib/amd64/libmanagement.so
7f14b73b7000-7f14b73c1000 r--s 00253000 fd:01 1052429                    /usr/lib/jvm/java-7-oracle/jre/lib/resources.jar
7f14b73c1000-7f14b76c2000 rw-p 00000000 00:00 0 
7f14b76c2000-7f14b76d9000 r-xp 00000000 fd:01 1052386                    /usr/lib/jvm/java-7-oracle/jre/lib/amd64/libnet.so
7f14b76d9000-7f14b78d8000 ---p 00017000 fd:01 1052386                    /usr/lib/jvm/java-7-oracle/jre/lib/amd64/libnet.so
7f14b78d8000-7f14b78d9000 rw-p 00016000 fd:01 1052386                    /usr/lib/jvm/java-7-oracle/jre/lib/amd64/libnet.so
7f14b78d9000-7f14b78e9000 r-xp 00000000 fd:01 1052352                    /usr/lib/jvm/java-7-oracle/jre/lib/amd64/libnio.so
7f14b78e9000-7f14b7ae9000 ---p 00010000 fd:01 1052352                    /usr/lib/jvm/java-7-oracle/jre/lib/amd64/libnio.so
7f14b7ae9000-7f14b7aea000 rw-p 00010000 fd:01 1052352                    /usr/lib/jvm/java-7-oracle/jre/lib/amd64/libnio.so
7f14b7aea000-7f14b7af0000 r--s 00036000 fd:01 822015                     /opt/OpenbravoTablero/lib/test/junit.jar
7f14b7af0000-7f14b7af6000 r--s 00045000 fd:01 822016                     /opt/OpenbravoTablero/lib/test/hamcrest-all-1.3.jar
7f14b7af6000-7f14b7b01000 r--s 0005f000 fd:01 822060                     /opt/OpenbravoTablero/lib/runtime/xstream-1.3.1.jar
7f14b7b01000-7f14b7b0b000 r--s 00089000 fd:01 822067                     /opt/OpenbravoTablero/lib/runtime/xmlgraphics-commons-1.5.jar
7f14b7b0b000-7f14b7b22000 r--s 00114000 fd:01 822019                     /opt/OpenbravoTablero/lib/runtime/xercesImpl.jar
7f14b7b22000-7f14b7b25000 r--s 0001c000 fd:01 822082                     /opt/OpenbravoTablero/lib/runtime/wsdl4j-1.5.1.jar
7f14b7b25000-7f14b7b2b000 r--s 0004b000 fd:01 822035                     /opt/OpenbravoTablero/lib/runtime/tika-core-0.9.jar
7f14b7b2b000-7f14b7b2c000 r--s 00002000 fd:01 822040                     /opt/OpenbravoTablero/lib/runtime/slf4j-log4j12-1.6.1.jar
7f14b7b2c000-7f14b7b2e000 r--s 00005000 fd:01 822050                     /opt/OpenbravoTablero/lib/runtime/slf4j-api-1.6.1.jar
7f14b7b2e000-7f14b7b2f000 r--s 00001000 fd:01 822044                     /opt/OpenbravoTablero/lib/runtime/renderFoRmi.jar
7f14b7b2f000-7f14b7b35000 r--s 00067000 fd:01 822079                     /opt/OpenbravoTablero/lib/runtime/quartz-1.6.2.jar
7f14b7b35000-7f14b7b3c000 r--s 0008e000 fd:01 822026                     /opt/OpenbravoTablero/lib/runtime/postgresql-9.4.1207.jre6.jar
7f14b7b3c000-7f14b7b5d000 r--s 001bb000 fd:01 822078                     /opt/OpenbravoTablero/lib/runtime/poi-3.10.1.jar
7f14b7b5d000-7f14b7b61000 r--s 0003d000 fd:01 822057                     /opt/OpenbravoTablero/lib/runtime/openbravo-core.jar
7f14b7b61000-7f14b7b73000 r--s 001fc000 fd:01 822052                     /opt/OpenbravoTablero/lib/runtime/ojdbc6.jar
7f14b7b73000-7f14b7b75000 r--s 00018000 fd:01 822066                     /opt/OpenbravoTablero/lib/runtime/nekohtml.jar
7f14b7b75000-7f14b7b7c000 r--s 00072000 fd:01 822028                     /opt/OpenbravoTablero/lib/runtime/mail-1.4.4.jar
7f14b7b7c000-7f14b7b85000 r--s 0006d000 fd:01 822076                     /opt/OpenbravoTablero/lib/runtime/log4j-1.2.16.jar
7f14b7b85000-7f14b7b91000 r--s 000aa000 fd:01 822055                     /opt/OpenbravoTablero/lib/runtime/jxl-2.6.10.jar
7f14b7b91000-7f14b7b93000 r--s 00001000 fd:01 822039                     /opt/OpenbravoTablero/lib/runtime/jta.jar
7f14b7b93000-7f14b7ba3000 r--s 0013f000 fd:01 822023                     /opt/OpenbravoTablero/lib/runtime/jfreechart-1.0.12.jar
7f14b7ba3000-7f14b7ba5000 r--s 00010000 fd:01 822041                     /opt/OpenbravoTablero/lib/runtime/jettison-1.3.jar
7f14b7ba5000-7f14b7bb7000 r--s 00223000 fd:01 822061                     /opt/OpenbravoTablero/lib/runtime/jdt-compiler-4.4.2.jar
7f14b7bb7000-7f14b7bbd000 r--s 00046000 fd:01 822042                     /opt/OpenbravoTablero/lib/runtime/jcommon-1.0.15.jar
7f14b7bbd000-7f14b7bbf000 r--s 00006000 fd:01 822086                     /opt/OpenbravoTablero/lib/runtime/jaxrpc.jar
7f14b7bbf000-7f14b7bc8000 r--s 00095000 fd:01 822043                     /opt/OpenbravoTablero/lib/runtime/javassist-3.14.0-GA.jar
7f14b7bc8000-7f14b7bca000 r--s 0025c000 fd:01 822020                     /opt/OpenbravoTablero/lib/runtime/jasperreports-fonts-6.0.0.jar
7f14b7bca000-7f14b7c26000 r--s 0048c000 fd:01 822027                     /opt/OpenbravoTablero/lib/runtime/jasperreports-6.0.0.jar
7f14b7c26000-7f14b7c38000 r--s 00105000 fd:01 822077                     /opt/OpenbravoTablero/lib/runtime/jackson-databind-2.5.1.jar
7f14b7c38000-7f14b7c3c000 r--s 00035000 fd:01 822056                     /opt/OpenbravoTablero/lib/runtime/jackson-core-2.5.1.jar
7f14b7c3c000-7f14b7c3e000 r--s 00008000 fd:01 822071                     /opt/OpenbravoTablero/lib/runtime/jackson-annotations-2.5.1.jar
7f14b7c3e000-7f14b7c54000 r--s 001ef000 fd:01 822046                     /opt/OpenbravoTablero/lib/runtime/itextpdf-5.5.0.jar
7f14b7c54000-7f14b7c56000 r--s 0000c000 fd:01 822045                     /opt/OpenbravoTablero/lib/runtime/itext-pdfa-5.5.0.jar
7f14b7c56000-7f14b7c62000 r--s 00108000 fd:01 822068                     /opt/OpenbravoTablero/lib/runtime/iText-2.1.7.jar
7f14b7c62000-7f14b7caa000 r--s 003aa000 fd:01 822036                     /opt/OpenbravoTablero/lib/runtime/hibernate3-patched.jar
7f14b7caa000-7f14b7caf000 r--s 00014000 fd:01 822074                     /opt/OpenbravoTablero/lib/runtime/hibernate-jpa-2.0-api-1.0.0.Final.jar
7f14b7caf000-7f14b7cbf000 r--s 000c8000 fd:01 822022                     /opt/OpenbravoTablero/lib/runtime/freemarker-2.3.16.jar
7f14b7cbf000-7f14b7cf8000 r--s 00329000 fd:01 822088                     /opt/OpenbravoTablero/lib/runtime/fop-1.1.jar
7f14b7cf8000-7f14b7cfd000 r--s 00048000 fd:01 822064                     /opt/OpenbravoTablero/lib/runtime/dom4j-1.6.1.jar
7f14b7cfd000-7f14b7cfe000 ---p 00000000 00:00 0 
7f14b7cfe000-7f14b7dfe000 rw-p 00000000 00:00 0 
7f14b7dfe000-7f14b7e01000 ---p 00000000 00:00 0 
7f14b7e01000-7f14b7eff000 rw-p 00000000 00:00 0 
7f14b7eff000-7f14b7f02000 ---p 00000000 00:00 0 
7f14b7f02000-7f14b8000000 rw-p 00000000 00:00 0 
7f14b8000000-7f14b8021000 rw-p 00000000 00:00 0 
7f14b8021000-7f14bc000000 ---p 00000000 00:00 0 
7f14bc000000-7f14bc7d8000 rw-p 00000000 00:00 0 
7f14bc7d8000-7f14c0000000 ---p 00000000 00:00 0 
7f14c0000000-7f14c0021000 rw-p 00000000 00:00 0 
7f14c0021000-7f14c4000000 ---p 00000000 00:00 0 
7f14c4000000-7f14c4021000 rw-p 00000000 00:00 0 
7f14c4021000-7f14c8000000 ---p 00000000 00:00 0 
7f14c8000000-7f14c8021000 rw-p 00000000 00:00 0 
7f14c8021000-7f14cc000000 ---p 00000000 00:00 0 
7f14cc000000-7f14cc0e4000 rw-p 00000000 00:00 0 
7f14cc0e4000-7f14d0000000 ---p 00000000 00:00 0 
7f14d0000000-7f14d0021000 rw-p 00000000 00:00 0 
7f14d0021000-7f14d4000000 ---p 00000000 00:00 0 
7f14d4000000-7f14d4003000 r--s 00016000 fd:01 822049                     /opt/OpenbravoTablero/lib/runtime/commons-pool-1.5.6.jar
7f14d4003000-7f14d4005000 r--s 0000d000 fd:01 822025                     /opt/OpenbravoTablero/lib/runtime/commons-logging-1.1.1.jar
7f14d4005000-7f14d400a000 r--s 00041000 fd:01 822083                     /opt/OpenbravoTablero/lib/runtime/commons-lang-2.6.jar
7f14d400a000-7f14d400e000 r--s 0002a000 fd:01 822063                     /opt/OpenbravoTablero/lib/runtime/commons-io-2.4.jar
7f14d400e000-7f14d4010000 r--s 0000d000 fd:01 822048                     /opt/OpenbravoTablero/lib/runtime/commons-fileupload-1.2.2.jar
7f14d4010000-7f14d4013000 r--s 0000f000 fd:01 822062                     /opt/OpenbravoTablero/lib/runtime/commons-discovery-0.2.jar
7f14d4013000-7f14d4017000 r--s 00020000 fd:01 822085                     /opt/OpenbravoTablero/lib/runtime/commons-digester-1.8.1.jar
7f14d4017000-7f14d401a000 r--s 00025000 fd:01 822072                     /opt/OpenbravoTablero/lib/runtime/commons-dbcp-1.4.jar
7f14d401a000-7f14d4028000 r--s 0007f000 fd:01 822034                     /opt/OpenbravoTablero/lib/runtime/commons-collections-3.2.1.jar
7f14d4028000-7f14d402a000 r--s 00010000 fd:01 822084                     /opt/OpenbravoTablero/lib/runtime/commons-codec-1.5.jar
7f14d402a000-7f14d402f000 r--s 00034000 fd:01 822069                     /opt/OpenbravoTablero/lib/runtime/commons-beanutils-1.8.3.jar
7f14d402f000-7f14d4031000 r--s 00005000 fd:01 822031                     /opt/OpenbravoTablero/lib/runtime/catalina-ant.jar
7f14d4031000-7f14d4032000 r--s 00007000 fd:01 822080                     /opt/OpenbravoTablero/lib/runtime/batik-xml.jar
7f14d4032000-7f14d4035000 r--s 0001d000 fd:01 822059                     /opt/OpenbravoTablero/lib/runtime/batik-util.jar
7f14d4035000-7f14d403a000 r--s 00030000 fd:01 822070                     /opt/OpenbravoTablero/lib/runtime/batik-svggen.jar
7f14d403a000-7f14d4047000 r--s 00087000 fd:01 822065                     /opt/OpenbravoTablero/lib/runtime/batik-svg-dom.jar
7f14d4047000-7f14d404a000 r--s 0000d000 fd:01 822033                     /opt/OpenbravoTablero/lib/runtime/batik-script.jar
7f14d404a000-7f14d404c000 r--s 00010000 fd:01 822073                     /opt/OpenbravoTablero/lib/runtime/batik-parser.jar
7f14d404c000-7f14d4050000 r--s 00038000 fd:01 822053                     /opt/OpenbravoTablero/lib/runtime/batik-gvt.jar
7f14d4050000-7f14d4054000 r--s 00027000 fd:01 822032                     /opt/OpenbravoTablero/lib/runtime/batik-dom.jar
7f14d4054000-7f14d405c000 r--s 00045000 fd:01 822030                     /opt/OpenbravoTablero/lib/runtime/batik-css.jar
7f14d405c000-7f14d4066000 r--s 00080000 fd:01 822058                     /opt/OpenbravoTablero/lib/runtime/batik-bridge.jar
7f14d4066000-7f14d406d000 r--s 0005c000 fd:01 822087                     /opt/OpenbravoTablero/lib/runtime/batik-awt-util.jar
7f14d406d000-7f14d4070000 r--s 00015000 fd:01 822018                     /opt/OpenbravoTablero/lib/runtime/batik-anim.jar
7f14d4070000-7f14d4076000 r--s 00043000 fd:01 822047                     /opt/OpenbravoTablero/lib/runtime/barcode4j-fop-ext-complete.jar
7f14d4076000-7f14d408a000 r--s 00173000 fd:01 822075                     /opt/OpenbravoTablero/lib/runtime/axis.jar
7f14d408a000-7f14d408c000 r--s 00007000 fd:01 822054                     /opt/OpenbravoTablero/lib/runtime/axis-ant.jar
7f14d408c000-7f14d408f000 r--s 0000f000 fd:01 822037                     /opt/OpenbravoTablero/lib/runtime/avalon-framework-4.1.5.jar
7f14d408f000-7f14d4094000 r--s 00068000 fd:01 822024                     /opt/OpenbravoTablero/lib/runtime/antlr-2.7.7.jar
7f14d4094000-7f14d409c000 r--s 00063000 fd:01 822038                     /opt/OpenbravoTablero/lib/runtime/ant-nodeps.jar
7f14d409c000-7f14d409e000 r--s 00001000 fd:01 822081                     /opt/OpenbravoTablero/lib/runtime/ant-apache-log4j-1.9.2.jar
7f14d409e000-7f14d40bc000 r--s 001cb000 fd:01 822029                     /opt/OpenbravoTablero/lib/runtime/ant-1.9.2.jar
7f14d40bc000-7f14d40c5000 r--s 000c7000 fd:01 822009                     /opt/OpenbravoTablero/lib/build/yuicompressor-2.4.2.jar
7f14d40c5000-7f14d40c7000 r--s 00014000 fd:01 822010                     /opt/OpenbravoTablero/lib/build/servlet-api.jar
7f14d40c7000-7f14d40d0000 r--s 000be000 fd:01 822012                     /opt/OpenbravoTablero/lib/build/ob-rhino-1.6R7.jar
7f14d40d0000-7f14d40d9000 r--s 000cc000 fd:01 822011                     /opt/OpenbravoTablero/lib/build/js.jar
7f14d40d9000-7f14d40df000 r--s 0006e000 fd:01 1086263                    /opt/OpenbravoTablero/src-db/database/lib/wstx-asl-3.0.2.jar
7f14d40df000-7f14d40e2000 ---p 00000000 00:00 0 
7f14d40e2000-7f14d41e0000 rw-p 00000000 00:00 0 
7f14d41e0000-7f14d41e3000 ---p 00000000 00:00 0 
7f14d41e3000-7f14d42e1000 rw-p 00000000 00:00 0 
7f14d42e1000-7f14d4602000 r--p 00000000 fd:01 294201                     /usr/lib/locale/locale-archive
7f14d4602000-7f14d4605000 ---p 00000000 00:00 0 
7f14d4605000-7f14d4703000 rw-p 00000000 00:00 0 
7f14d4703000-7f14d4706000 ---p 00000000 00:00 0 
7f14d4706000-7f14d4804000 rw-p 00000000 00:00 0 
7f14d4804000-7f14d4805000 ---p 00000000 00:00 0 
7f14d4805000-7f14d529b000 rw-p 00000000 00:00 0 
7f14d529b000-7f14d545b000 r--s 039fb000 fd:01 1053034                    /usr/lib/jvm/java-7-oracle/jre/lib/rt.jar
7f14d545b000-7f14d79e5000 rw-p 00000000 00:00 0 
7f14d79e5000-7f14d79e6000 ---p 00000000 00:00 0 
7f14d79e6000-7f14d7ae6000 rw-p 00000000 00:00 0 
7f14d7ae6000-7f14d7ae7000 ---p 00000000 00:00 0 
7f14d7ae7000-7f14d7bfc000 rw-p 00000000 00:00 0 
7f14d7bfc000-7f14d7d3d000 rw-p 00000000 00:00 0 
7f14d7d3d000-7f14d7d48000 rw-p 00000000 00:00 0 
7f14d7d48000-7f14d7d66000 rw-p 00000000 00:00 0 
7f14d7d66000-7f14d7d7b000 rw-p 00000000 00:00 0 
7f14d7d7b000-7f14d7ebb000 rw-p 00000000 00:00 0 
7f14d7ebb000-7f14d7f08000 rw-p 00000000 00:00 0 
7f14d7f08000-7f14d7f66000 rw-p 00000000 00:00 0 
7f14d7f66000-7f14d7f67000 rw-p 00000000 00:00 0 
7f14d7f67000-7f14d81d7000 rwxp 00000000 00:00 0 
7f14d81d7000-7f14daf67000 rw-p 00000000 00:00 0 
7f14daf67000-7f14daf7e000 r-xp 00000000 fd:01 1052381                    /usr/lib/jvm/java-7-oracle/jre/lib/amd64/libzip.so
7f14daf7e000-7f14db17e000 ---p 00017000 fd:01 1052381                    /usr/lib/jvm/java-7-oracle/jre/lib/amd64/libzip.so
7f14db17e000-7f14db17f000 rw-p 00017000 fd:01 1052381                    /usr/lib/jvm/java-7-oracle/jre/lib/amd64/libzip.so
7f14db17f000-7f14db18a000 r-xp 00000000 fd:01 652838                     /lib/x86_64-linux-gnu/libnss_files-2.23.so
7f14db18a000-7f14db389000 ---p 0000b000 fd:01 652838                     /lib/x86_64-linux-gnu/libnss_files-2.23.so
7f14db389000-7f14db38a000 r--p 0000a000 fd:01 652838                     /lib/x86_64-linux-gnu/libnss_files-2.23.so
7f14db38a000-7f14db38b000 rw-p 0000b000 fd:01 652838                     /lib/x86_64-linux-gnu/libnss_files-2.23.so
7f14db38b000-7f14db391000 rw-p 00000000 00:00 0 
7f14db391000-7f14db39c000 r-xp 00000000 fd:01 652835                     /lib/x86_64-linux-gnu/libnss_nis-2.23.so
7f14db39c000-7f14db59b000 ---p 0000b000 fd:01 652835                     /lib/x86_64-linux-gnu/libnss_nis-2.23.so
7f14db59b000-7f14db59c000 r--p 0000a000 fd:01 652835                     /lib/x86_64-linux-gnu/libnss_nis-2.23.so
7f14db59c000-7f14db59d000 rw-p 0000b000 fd:01 652835                     /lib/x86_64-linux-gnu/libnss_nis-2.23.so
7f14db59d000-7f14db5b3000 r-xp 00000000 fd:01 652833                     /lib/x86_64-linux-gnu/libnsl-2.23.so
7f14db5b3000-7f14db7b2000 ---p 00016000 fd:01 652833                     /lib/x86_64-linux-gnu/libnsl-2.23.so
7f14db7b2000-7f14db7b3000 r--p 00015000 fd:01 652833                     /lib/x86_64-linux-gnu/libnsl-2.23.so
7f14db7b3000-7f14db7b4000 rw-p 00016000 fd:01 652833                     /lib/x86_64-linux-gnu/libnsl-2.23.so
7f14db7b4000-7f14db7b6000 rw-p 00000000 00:00 0 
7f14db7b6000-7f14db7be000 r-xp 00000000 fd:01 652830                     /lib/x86_64-linux-gnu/libnss_compat-2.23.so
7f14db7be000-7f14db9bd000 ---p 00008000 fd:01 652830                     /lib/x86_64-linux-gnu/libnss_compat-2.23.so
7f14db9bd000-7f14db9be000 r--p 00007000 fd:01 652830                     /lib/x86_64-linux-gnu/libnss_compat-2.23.so
7f14db9be000-7f14db9bf000 rw-p 00008000 fd:01 652830                     /lib/x86_64-linux-gnu/libnss_compat-2.23.so
7f14db9bf000-7f14db9e8000 r-xp 00000000 fd:01 1052347                    /usr/lib/jvm/java-7-oracle/jre/lib/amd64/libjava.so
7f14db9e8000-7f14dbbe8000 ---p 00029000 fd:01 1052347                    /usr/lib/jvm/java-7-oracle/jre/lib/amd64/libjava.so
7f14dbbe8000-7f14dbbea000 rw-p 00029000 fd:01 1052347                    /usr/lib/jvm/java-7-oracle/jre/lib/amd64/libjava.so
7f14dbbea000-7f14dbbf7000 r-xp 00000000 fd:01 1052374                    /usr/lib/jvm/java-7-oracle/jre/lib/amd64/libverify.so
7f14dbbf7000-7f14dbdf6000 ---p 0000d000 fd:01 1052374                    /usr/lib/jvm/java-7-oracle/jre/lib/amd64/libverify.so
7f14dbdf6000-7f14dbdf8000 rw-p 0000c000 fd:01 1052374                    /usr/lib/jvm/java-7-oracle/jre/lib/amd64/libverify.so
7f14dbdf8000-7f14dbdff000 r-xp 00000000 fd:01 652847                     /lib/x86_64-linux-gnu/librt-2.23.so
7f14dbdff000-7f14dbffe000 ---p 00007000 fd:01 652847                     /lib/x86_64-linux-gnu/librt-2.23.so
7f14dbffe000-7f14dbfff000 r--p 00006000 fd:01 652847                     /lib/x86_64-linux-gnu/librt-2.23.so
7f14dbfff000-7f14dc000000 rw-p 00007000 fd:01 652847                     /lib/x86_64-linux-gnu/librt-2.23.so
7f14dc000000-7f14dc827000 rw-p 00000000 00:00 0 
7f14dc827000-7f14e0000000 ---p 00000000 00:00 0 
7f14e0000000-7f14e0001000 r--s 00002000 fd:01 822051                     /opt/OpenbravoTablero/lib/runtime/batik-ext.jar
7f14e0001000-7f14e000c000 r--s 000b4000 fd:01 1086261                    /opt/OpenbravoTablero/src-db/database/lib/dbsourcemanager.jar
7f14e000c000-7f14e0012000 r--s 00036000 fd:01 1086262                    /opt/OpenbravoTablero/src-db/database/lib/commons-betwixt-0.8.jar
7f14e0012000-7f14e0071000 rw-p 00000000 00:00 0 
7f14e0071000-7f14e0179000 r-xp 00000000 fd:01 652844                     /lib/x86_64-linux-gnu/libm-2.23.so
7f14e0179000-7f14e0378000 ---p 00108000 fd:01 652844                     /lib/x86_64-linux-gnu/libm-2.23.so
7f14e0378000-7f14e0379000 r--p 00107000 fd:01 652844                     /lib/x86_64-linux-gnu/libm-2.23.so
7f14e0379000-7f14e037a000 rw-p 00108000 fd:01 652844                     /lib/x86_64-linux-gnu/libm-2.23.so
7f14e037a000-7f14e0ef0000 r-xp 00000000 fd:01 1052401                    /usr/lib/jvm/java-7-oracle/jre/lib/amd64/server/libjvm.so
7f14e0ef0000-7f14e10ef000 ---p 00b76000 fd:01 1052401                    /usr/lib/jvm/java-7-oracle/jre/lib/amd64/server/libjvm.so
7f14e10ef000-7f14e11b3000 rw-p 00b75000 fd:01 1052401                    /usr/lib/jvm/java-7-oracle/jre/lib/amd64/server/libjvm.so
7f14e11b3000-7f14e11f4000 rw-p 00000000 00:00 0 
7f14e11f4000-7f14e13b4000 r-xp 00000000 fd:01 652867                     /lib/x86_64-linux-gnu/libc-2.23.so
7f14e13b4000-7f14e15b3000 ---p 001c0000 fd:01 652867                     /lib/x86_64-linux-gnu/libc-2.23.so
7f14e15b3000-7f14e15b7000 r--p 001bf000 fd:01 652867                     /lib/x86_64-linux-gnu/libc-2.23.so
7f14e15b7000-7f14e15b9000 rw-p 001c3000 fd:01 652867                     /lib/x86_64-linux-gnu/libc-2.23.so
7f14e15b9000-7f14e15bd000 rw-p 00000000 00:00 0 
7f14e15bd000-7f14e15c0000 r-xp 00000000 fd:01 652869                     /lib/x86_64-linux-gnu/libdl-2.23.so
7f14e15c0000-7f14e17bf000 ---p 00003000 fd:01 652869                     /lib/x86_64-linux-gnu/libdl-2.23.so
7f14e17bf000-7f14e17c0000 r--p 00002000 fd:01 652869                     /lib/x86_64-linux-gnu/libdl-2.23.so
7f14e17c0000-7f14e17c1000 rw-p 00003000 fd:01 652869                     /lib/x86_64-linux-gnu/libdl-2.23.so
7f14e17c1000-7f14e17d6000 r-xp 00000000 fd:01 1052393                    /usr/lib/jvm/java-7-oracle/jre/lib/amd64/jli/libjli.so
7f14e17d6000-7f14e19d5000 ---p 00015000 fd:01 1052393                    /usr/lib/jvm/java-7-oracle/jre/lib/amd64/jli/libjli.so
7f14e19d5000-7f14e19d6000 rw-p 00014000 fd:01 1052393                    /usr/lib/jvm/java-7-oracle/jre/lib/amd64/jli/libjli.so
7f14e19d6000-7f14e19ee000 r-xp 00000000 fd:01 652865                     /lib/x86_64-linux-gnu/libpthread-2.23.so
7f14e19ee000-7f14e1bed000 ---p 00018000 fd:01 652865                     /lib/x86_64-linux-gnu/libpthread-2.23.so
7f14e1bed000-7f14e1bee000 r--p 00017000 fd:01 652865                     /lib/x86_64-linux-gnu/libpthread-2.23.so
7f14e1bee000-7f14e1bef000 rw-p 00018000 fd:01 652865                     /lib/x86_64-linux-gnu/libpthread-2.23.so
7f14e1bef000-7f14e1bf3000 rw-p 00000000 00:00 0 
7f14e1bf3000-7f14e1c19000 r-xp 00000000 fd:01 652848                     /lib/x86_64-linux-gnu/ld-2.23.so
7f14e1c19000-7f14e1c24000 rw-p 00000000 00:00 0 
7f14e1c24000-7f14e1c42000 rw-p 00000000 00:00 0 
7f14e1c42000-7f14e1c4c000 rw-p 00000000 00:00 0 
7f14e1c4c000-7f14e1d02000 rw-p 00000000 00:00 0 
7f14e1d02000-7f14e1d0a000 rw-s 00000000 fd:01 412593                     /tmp/hsperfdata_sistemas/5375
7f14e1d0a000-7f14e1d0d000 ---p 00000000 00:00 0 
7f14e1d0d000-7f14e1e0f000 rw-p 00000000 00:00 0 
7f14e1e0f000-7f14e1e10000 r--s 00004000 fd:01 822021                     /opt/OpenbravoTablero/lib/runtime/ant-launcher-1.9.2.jar
7f14e1e10000-7f14e1e11000 r--s 00001000 fd:01 822008                     /opt/OpenbravoTablero/lib/build/YUIAnt.jar
7f14e1e11000-7f14e1e13000 r--s 0000e000 fd:01 1086264                    /opt/OpenbravoTablero/src-db/database/lib/jakarta-oro-2.0.8.jar
7f14e1e13000-7f14e1e14000 r--s 00001000 fd:01 1086265                    /opt/OpenbravoTablero/src-db/database/lib/dbmanager.jar
7f14e1e14000-7f14e1e15000 rw-p 00000000 00:00 0 
7f14e1e15000-7f14e1e16000 ---p 00000000 00:00 0 
7f14e1e16000-7f14e1e18000 rw-p 00000000 00:00 0 
7f14e1e18000-7f14e1e19000 r--p 00025000 fd:01 652848                     /lib/x86_64-linux-gnu/ld-2.23.so
7f14e1e19000-7f14e1e1a000 rw-p 00026000 fd:01 652848                     /lib/x86_64-linux-gnu/ld-2.23.so
7f14e1e1a000-7f14e1e1b000 rw-p 00000000 00:00 0 
7ffc6bc83000-7ffc6bca6000 rw-p 00000000 00:00 0                          [stack]
7ffc6bdbd000-7ffc6bdbf000 r--p 00000000 00:00 0                          [vvar]
7ffc6bdbf000-7ffc6bdc1000 r-xp 00000000 00:00 0                          [vdso]
ffffffffff600000-ffffffffff601000 r-xp 00000000 00:00 0                  [vsyscall]

VM Arguments:
jvm_args: -Xmx1024M 
java_command: org.openbravo.ddlutils.task.AlterDatabaseJava org.postgresql.Driver jdbc:postgresql://67.205.131.69:5432/openbravotablero tad felectronica2016+ com.openbravo.db.OpenbravoExcludeFilter model com.openbravo.db.OpenbravoMetadataFilter sourcedata ${bbdd.object} false INFO /opt/OpenbravoTablero/modules/ */src-db/database/model /opt/OpenbravoTablero/modules/ */src-db/database/sourcedata yes false  true
Launcher Type: SUN_STANDARD

Environment Variables:
JAVA_HOME=/usr/lib/jvm/java-7-oracle/
PATH=/usr/local/sbin:/usr/local/bin:/usr/sbin:/usr/bin:/sbin:/bin:/usr/games:/usr/local/games
USERNAME=root
SHELL=/bin/bash

Signal Handlers:
SIGSEGV: [libjvm.so+0x9a3b20], sa_mask[0]=0x7ffbfeff, sa_flags=0x10000004
SIGBUS: [libjvm.so+0x9a3b20], sa_mask[0]=0x7ffbfeff, sa_flags=0x10000004
SIGFPE: [libjvm.so+0x81e740], sa_mask[0]=0x7ffbfeff, sa_flags=0x10000004
SIGPIPE: [libjvm.so+0x81e740], sa_mask[0]=0x7ffbfeff, sa_flags=0x10000004
SIGXFSZ: [libjvm.so+0x81e740], sa_mask[0]=0x7ffbfeff, sa_flags=0x10000004
SIGILL: [libjvm.so+0x81e740], sa_mask[0]=0x7ffbfeff, sa_flags=0x10000004
SIGUSR1: SIG_DFL, sa_mask[0]=0x00000000, sa_flags=0x00000000
SIGUSR2: [libjvm.so+0x81ffb0], sa_mask[0]=0x00000004, sa_flags=0x10000004
SIGHUP: [libjvm.so+0x8210d0], sa_mask[0]=0x7ffbfeff, sa_flags=0x10000004
SIGINT: [libjvm.so+0x8210d0], sa_mask[0]=0x7ffbfeff, sa_flags=0x10000004
SIGTERM: [libjvm.so+0x8210d0], sa_mask[0]=0x7ffbfeff, sa_flags=0x10000004
SIGQUIT: [libjvm.so+0x8210d0], sa_mask[0]=0x7ffbfeff, sa_flags=0x10000004


---------------  S Y S T E M  ---------------

OS:stretch/sid

uname:Linux 4.4.0-34-generic #53-Ubuntu SMP Wed Jul 27 16:06:39 UTC 2016 x86_64
libc:glibc 2.23 NPTL 2.23 
rlimit: STACK 8192k, CORE 0k, NPROC 15750, NOFILE 65536, AS infinity
load average:0.69 0.41 0.21

/proc/meminfo:
MemTotal:        4046696 kB
MemFree:          129836 kB
MemAvailable:      61408 kB
Buffers:            5944 kB
Cached:            71768 kB
SwapCached:            0 kB
Active:          3801476 kB
Inactive:          34028 kB
Active(anon):    3760928 kB
Inactive(anon):      204 kB
Active(file):      40548 kB
Inactive(file):    33824 kB
Unevictable:        3660 kB
Mlocked:            3660 kB
SwapTotal:             0 kB
SwapFree:              0 kB
Dirty:               400 kB
Writeback:             0 kB
AnonPages:       3761624 kB
Mapped:            38516 kB
Shmem:               780 kB
Slab:              42588 kB
SReclaimable:      26076 kB
SUnreclaim:        16512 kB
KernelStack:        4176 kB
PageTables:        12600 kB
NFS_Unstable:          0 kB
Bounce:                0 kB
WritebackTmp:          0 kB
CommitLimit:     2023348 kB
Committed_AS:    4145464 kB
VmallocTotal:   34359738367 kB
VmallocUsed:           0 kB
VmallocChunk:          0 kB
HardwareCorrupted:     0 kB
AnonHugePages:   3465216 kB
CmaTotal:              0 kB
CmaFree:               0 kB
HugePages_Total:       0
HugePages_Free:        0
HugePages_Rsvd:        0
HugePages_Surp:        0
Hugepagesize:       2048 kB
DirectMap4k:       55276 kB
DirectMap2M:     2041856 kB
DirectMap1G:     2097152 kB


CPU:total 2 (1 cores per cpu, 1 threads per core) family 6 model 63 stepping 2, cmov, cx8, fxsr, mmx, sse, sse2, sse3, ssse3, sse4.1, sse4.2, popcnt, avx, avx2, aes, erms, tsc

/proc/cpuinfo:
processor	: 0
vendor_id	: GenuineIntel
cpu family	: 6
model		: 63
model name	: Intel(R) Xeon(R) CPU E5-2650L v3 @ 1.80GHz
stepping	: 2
microcode	: 0x1
cpu MHz		: 1797.917
cache size	: 30720 KB
physical id	: 0
siblings	: 1
core id		: 0
cpu cores	: 1
apicid		: 0
initial apicid	: 0
fpu		: yes
fpu_exception	: yes
cpuid level	: 13
wp		: yes
flags		: fpu vme de pse tsc msr pae mce cx8 apic sep mtrr pge mca cmov pat pse36 clflush mmx fxsr sse sse2 ss syscall nx pdpe1gb rdtscp lm constant_tsc arch_perfmon rep_good nopl eagerfpu pni pclmulqdq vmx ssse3 fma cx16 pcid sse4_1 sse4_2 x2apic movbe popcnt tsc_deadline_timer aes xsave avx f16c rdrand hypervisor lahf_lm abm vnmi ept fsgsbase tsc_adjust bmi1 avx2 smep bmi2 erms invpcid xsaveopt arat
bugs		:
bogomips	: 3595.83
clflush size	: 64
cache_alignment	: 64
address sizes	: 40 bits physical, 48 bits virtual
power management:

processor	: 1
vendor_id	: GenuineIntel
cpu family	: 6
model		: 63
model name	: Intel(R) Xeon(R) CPU E5-2650L v3 @ 1.80GHz
stepping	: 2
microcode	: 0x1
cpu MHz		: 1797.917
cache size	: 30720 KB
physical id	: 1
siblings	: 1
core id		: 0
cpu cores	: 1
apicid		: 1
initial apicid	: 1
fpu		: yes
fpu_exception	: yes
cpuid level	: 13
wp		: yes
flags		: fpu vme de pse tsc msr pae mce cx8 apic sep mtrr pge mca cmov pat pse36 clflush mmx fxsr sse sse2 ss syscall nx pdpe1gb rdtscp lm constant_tsc arch_perfmon rep_good nopl eagerfpu pni pclmulqdq vmx ssse3 fma cx16 pcid sse4_1 sse4_2 x2apic movbe popcnt tsc_deadline_timer aes xsave avx f16c rdrand hypervisor lahf_lm abm vnmi ept fsgsbase tsc_adjust bmi1 avx2 smep bmi2 erms invpcid xsaveopt arat
bugs		:
bogomips	: 3595.83
clflush size	: 64
cache_alignment	: 64
address sizes	: 40 bits physical, 48 bits virtual
power management:



Memory: 4k page, physical 4046696k(129836k free), swap 0k(0k free)

vm_info: Java HotSpot(TM) 64-Bit Server VM (24.80-b11) for linux-amd64 JRE (1.7.0_80-b15), built on Apr 10 2015 19:53:14 by "java_re" with gcc 4.3.0 20080428 (Red Hat 4.3.0-8)

time: Thu Jul 27 15:08:59 2017
elapsed time: 36 seconds

